Date,Name,Gender,Weight
2021-08-04T11:00:00+02:00,Första,♀,214
2021-08-04T11:00:00+02:00,Andra,♂,144
2021-08-04T11:00:00+02:00,Tredje,♂,201
2021-08-04T11:00:00+02:00,Fjärde,♂,226
2021-08-04T21:16:00+02:00,Första,♀,230
2021-08-04T21:16:00+02:00,Andra,♂,151
2021-08-04T21:16:00+02:00,Tredje,♂,218
2021-08-04T21:16:00+02:00,Fjärde,♂,243
2021-08-05T10:45:00+02:00,Första,♀,235
2021-08-05T10:45:00+02:00,Andra,♂,166
2021-08-05T10:45:00+02:00,Tredje,♂,236
2021-08-05T10:45:00+02:00,Fjärde,♂,248
2021-08-05T21:31:00+02:00,Första,♀,242
2021-08-05T21:31:00+02:00,Andra,♂,177
2021-08-05T21:31:00+02:00,Tredje,♂,249
2021-08-05T21:31:00+02:00,Fjärde,♂,248
2021-08-06T09:05:00+02:00,Första,♀,264
2021-08-06T09:05:00+02:00,Andra,♂,192
2021-08-06T09:05:00+02:00,Tredje,♂,264
2021-08-06T09:05:00+02:00,Fjärde,♂,273
2021-08-06T21:18:00+02:00,Första,♀,268
2021-08-06T21:18:00+02:00,Andra,♂,209
2021-08-06T21:18:00+02:00,Tredje,♂,272
2021-08-06T21:18:00+02:00,Fjärde,♂,286
2021-08-07T09:18:00+02:00,Första,♀,286
2021-08-07T09:18:00+02:00,Andra,♂,217
2021-08-07T09:18:00+02:00,Tredje,♂,285
2021-08-07T09:18:00+02:00,Fjärde,♂,308
2021-08-07T21:25:00+02:00,Första,♀,295
2021-08-07T21:25:00+02:00,Andra,♂,235
2021-08-07T21:25:00+02:00,Tredje,♂,303
2021-08-07T21:25:00+02:00,Fjärde,♂,325
2021-08-08T09:52:00+02:00,Första,♀,313
2021-08-08T09:52:00+02:00,Andra,♂,253
2021-08-08T09:52:00+02:00,Tredje,♂,309
2021-08-08T09:52:00+02:00,Fjärde,♂,333
2021-08-08T21:08:00+02:00,Första,♀,320
2021-08-08T21:08:00+02:00,Andra,♂,267
2021-08-08T21:08:00+02:00,Tredje,♂,322
2021-08-08T21:08:00+02:00,Fjärde,♂,345
2021-08-09T09:18:00+02:00,Första,♀,337
2021-08-09T09:18:00+02:00,Andra,♂,277
2021-08-09T09:18:00+02:00,Tredje,♂,339
2021-08-09T09:18:00+02:00,Fjärde,♂,366
2021-08-09T21:28:00+02:00,Första,♀,352
2021-08-09T21:28:00+02:00,Andra,♂,284
2021-08-09T21:28:00+02:00,Tredje,♂,353
2021-08-09T21:28:00+02:00,Fjärde,♂,393
2021-08-10T09:25:00+02:00,Första,♀,360
2021-08-10T09:25:00+02:00,Andra,♂,300
2021-08-10T09:25:00+02:00,Tredje,♂,374
2021-08-10T09:25:00+02:00,Fjärde,♂,402
2021-08-10T21:30:00+02:00,Första,♀,376
2021-08-10T21:30:00+02:00,Andra,♂,317
2021-08-10T21:30:00+02:00,Tredje,♂,382
2021-08-10T21:30:00+02:00,Fjärde,♂,424
2021-08-11T10:03:00+02:00,Första,♀,392
2021-08-11T10:03:00+02:00,Andra,♂,333
2021-08-11T10:03:00+02:00,Tredje,♂,400
2021-08-11T10:03:00+02:00,Fjärde,♂,447
2021-08-11T23:35:00+02:00,Första,♀,407
2021-08-11T23:35:00+02:00,Andra,♂,360
2021-08-11T23:35:00+02:00,Tredje,♂,423
2021-08-11T23:35:00+02:00,Fjärde,♂,475
2021-08-12T10:52:00+02:00,Första,♀,426
2021-08-12T10:52:00+02:00,Andra,♂,362
2021-08-12T10:52:00+02:00,Tredje,♂,447
2021-08-12T10:52:00+02:00,Fjärde,♂,490
2021-08-12T20:52:00+02:00,Första,♀,442
2021-08-12T20:52:00+02:00,Andra,♂,385
2021-08-12T20:52:00+02:00,Tredje,♂,451
2021-08-12T20:52:00+02:00,Fjärde,♂,511
2021-08-13T10:14:00+02:00,Första,♀,460
2021-08-13T10:14:00+02:00,Andra,♂,394
2021-08-13T10:14:00+02:00,Tredje,♂,473
2021-08-13T10:14:00+02:00,Fjärde,♂,525
2021-08-13T22:00:00+02:00,Första,♀,480
2021-08-13T22:00:00+02:00,Andra,♂,410
2021-08-13T22:00:00+02:00,Tredje,♂,489
2021-08-13T22:00:00+02:00,Fjärde,♂,547
2021-08-14T12:18:00+02:00,Första,♀,486
2021-08-14T12:18:00+02:00,Andra,♂,420
2021-08-14T12:18:00+02:00,Tredje,♂,509
2021-08-14T12:18:00+02:00,Fjärde,♂,567
2021-08-14T22:50:00+02:00,Första,♀,503
2021-08-14T22:50:00+02:00,Andra,♂,436
2021-08-14T22:50:00+02:00,Tredje,♂,532
2021-08-14T22:50:00+02:00,Fjärde,♂,581
2021-08-15T11:35:00+02:00,Första,♀,525
2021-08-15T11:35:00+02:00,Andra,♂,451
2021-08-15T11:35:00+02:00,Tredje,♂,538
2021-08-15T11:35:00+02:00,Fjärde,♂,605
2021-08-15T21:28:00+02:00,Första,♀,548
2021-08-15T21:28:00+02:00,Andra,♂,462
2021-08-15T21:28:00+02:00,Tredje,♂,563
2021-08-15T21:28:00+02:00,Fjärde,♂,610
2021-08-16T21:21:30+02:00,Första,♀,575
2021-08-16T21:21:30+02:00,Andra,♂,500
2021-08-16T21:21:30+02:00,Tredje,♂,594
2021-08-16T21:21:30+02:00,Fjärde,♂,662
2021-08-17T09:55:30+02:00,Första,♀,590
2021-08-17T09:55:30+02:00,Andra,♂,530
2021-08-17T09:55:30+02:00,Tredje,♂,614
2021-08-17T09:55:30+02:00,Fjärde,♂,684
2021-08-17T22:33:30+02:00,Första,♀,625
2021-08-17T22:33:30+02:00,Andra,♂,539
2021-08-17T22:33:30+02:00,Tredje,♂,638
2021-08-17T22:33:30+02:00,Fjärde,♂,705
2021-08-18T09:48:30+02:00,Första,♀,628
2021-08-18T09:48:30+02:00,Andra,♂,554
2021-08-18T09:48:30+02:00,Tredje,♂,658
2021-08-18T09:48:30+02:00,Fjärde,♂,720
2021-08-19T11:35:30+02:00,Första,♀,672
2021-08-19T11:35:30+02:00,Andra,♂,585
2021-08-19T11:35:30+02:00,Tredje,♂,676
2021-08-19T11:35:30+02:00,Fjärde,♂,768
2021-08-20T21:15:00+02:00,Första,♀,695
2021-08-20T21:15:00+02:00,Andra,♂,632
2021-08-20T21:15:00+02:00,Tredje,♂,723
2021-08-20T21:15:00+02:00,Fjärde,♂,825
2021-08-21T22:30:00+02:00,Första,♀,715
2021-08-21T22:30:00+02:00,Andra,♂,662
2021-08-21T22:30:00+02:00,Tredje,♂,737
2021-08-21T22:30:00+02:00,Fjärde,♂,866
2021-08-22T10:30:00+02:00,Första,♀,743
2021-08-22T10:30:00+02:00,Andra,♂,679
2021-08-22T10:30:00+02:00,Tredje,♂,749
2021-08-22T10:30:00+02:00,Fjärde,♂,870
2021-08-22T23:10:00+02:00,Första,♀,752
2021-08-22T23:10:00+02:00,Andra,♂,681
2021-08-22T23:10:00+02:00,Tredje,♂,755
2021-08-22T23:10:00+02:00,Fjärde,♂,880
2021-08-23T10:00:00+02:00,Första,♀,764
2021-08-23T10:00:00+02:00,Andra,♂,700
2021-08-23T10:00:00+02:00,Tredje,♂,770
2021-08-23T10:00:00+02:00,Fjärde,♂,918
2021-08-25T13:40:00+02:00,Första,♀,834
2021-08-25T13:40:00+02:00,Andra,♂,759
2021-08-25T13:40:00+02:00,Tredje,♂,832
2021-08-25T13:40:00+02:00,Fjärde,♂,996
2021-08-30T13:50:00+02:00,Första,♀,1012
2021-08-30T13:50:00+02:00,Andra,♂,927
2021-08-30T13:50:00+02:00,Tredje,♂,976
2021-08-30T13:50:00+02:00,Fjärde,♂,1187
2021-09-02T20:55:00+02:00,Första,♀,1067
2021-09-02T20:55:00+02:00,Andra,♂,1003
2021-09-02T20:55:00+02:00,Tredje,♂,1080
2021-09-02T20:55:00+02:00,Fjärde,♂,1283
2021-09-19T19:00:00+02:00,Första,♀,1600
2021-09-19T19:00:00+02:00,Andra,♂,1600
2021-09-19T19:00:00+02:00,Tredje,♂,1600
2021-09-19T19:00:00+02:00,Fjärde,♂,2000
